{
  "name": "CC-Runner-Java",
  "version": "1.0.0",
  "description": "",
  "title": "CC-Runner-Java API Docs",
  "url": "https://gitlab.com/jliebers/cc-runner-java",
  "sampleUrl": "http://localhost:5001/"
}
